<?xml version="1.0" encoding="UTF-8" standalone="no"?>
<svg
   xmlns:dc="http://purl.org/dc/elements/1.1/"
   xmlns:cc="http://creativecommons.org/ns#"
   xmlns:rdf="http://www.w3.org/1999/02/22-rdf-syntax-ns#"
   xmlns:svg="http://www.w3.org/2000/svg"
   xmlns="http://www.w3.org/2000/svg"
   xmlns:sodipodi="http://sodipodi.sourceforge.net/DTD/sodipodi-0.dtd"
   xmlns:inkscape="http://www.inkscape.org/namespaces/inkscape"
   viewBox="0 0 113 102"
   version="1.1"
   id="svg18"
   sodipodi:docname="Pythagorean.svg"
   width="113"
   height="102"
   style="font-style:italic;font-size:10px;font-family:'Noto Serif'"
   inkscape:export-filename="/home/xing/pCloudDrive/teaching/COMPSCI203/repository-2021-08/slides/lecture-01/Pythagorean.png"
   inkscape:export-xdpi="884.03003"
   inkscape:export-ydpi="884.03003"
   inkscape:version="0.92.5 (2060ec1f9f, 2020-04-08)">
  <metadata
     id="metadata24">
    <rdf:RDF>
      <cc:Work
         rdf:about="">
        <dc:format>image/svg+xml</dc:format>
        <dc:type
           rdf:resource="http://purl.org/dc/dcmitype/StillImage" />
        <dc:title></dc:title>
      </cc:Work>
    </rdf:RDF>
  </metadata>
  <defs
     id="defs22" />
  <sodipodi:namedview
     pagecolor="#ffffff"
     bordercolor="#666666"
     borderopacity="1"
     objecttolerance="10"
     gridtolerance="10"
     guidetolerance="10"
     inkscape:pageopacity="0"
     inkscape:pageshadow="2"
     inkscape:window-width="1920"
     inkscape:window-height="1080"
     id="namedview20"
     showgrid="false"
     inkscape:zoom="2.3137255"
     inkscape:cx="56"
     inkscape:cy="51"
     inkscape:window-x="0"
     inkscape:window-y="-37"
     inkscape:window-maximized="1"
     inkscape:current-layer="svg18" />
  <style
     id="style2">*{font-family:Noto Serif;font-style:italic;font-size:10px}</style>
  <path
     d="m 41,71 h 30 v 30 H 41 Z"
     id="path4"
     inkscape:connector-curvature="0"
     style="font-style:italic;font-size:10px;font-family:'Noto Serif';fill:#eeeeff;stroke:#4455aa" />
  <path
     d="m 71,31 h 40 V 71 H 71 Z"
     id="path6"
     inkscape:connector-curvature="0"
     style="font-style:italic;font-size:10px;font-family:'Noto Serif';fill:#ffeeee;stroke:#ee4433" />
  <path
     d="M 31,1 71,31 41,71 1,41 Z"
     id="path8"
     inkscape:connector-curvature="0"
     style="font-style:italic;font-size:10px;font-family:'Noto Serif';fill:#ffeeff;stroke:#9955aa" />
  <text
     id="text10"
     style="font-style:italic;font-size:10px;font-family:'Noto Serif'"
     x="53"
     y="81">a</text>
  <text
     id="text12"
     style="font-style:italic;font-size:10px;font-family:'Noto Serif'"
     x="76"
     y="55">b</text>
  <text
     id="text14"
     style="font-style:italic;font-size:10px;font-family:'Noto Serif'"
     x="46"
     y="51">c</text>
  <path
     d="M 41,71 H 71 V 31 Z"
     id="path16"
     inkscape:connector-curvature="0"
     style="font-style:italic;font-size:10px;font-family:'Noto Serif';fill:none;stroke:#000000;stroke-linejoin:bevel" />
</svg>
